# 3ds Max Wavefront OBJ Exporter v0.97b - (c)2007 guruware
# File Created: 22.03.2020 12:15:57

mtllib cloud_1.mtl

#
# object GeoSphere006
#

v  -0.1713 0.0606 0.0409
v  -0.1929 0.0365 0.0405
v  -0.1706 0.0131 0.0433
v  -0.1284 0.0449 -0.0251
v  -0.1290 0.0251 -0.0259
v  -0.1424 0.0531 -0.0350
v  -0.1896 0.0649 -0.0262
v  -0.1700 0.0394 -0.0452
v  -0.1970 0.0499 -0.0307
v  -0.2037 0.0251 0.0284
v  -0.2055 0.0102 -0.0060
v  -0.1970 0.0082 0.0252
v  -0.1205 0.0350 -0.0108
v  -0.1403 0.0518 0.0375
v  -0.1205 0.0231 0.0053
v  -0.1608 0.0093 -0.0376
v  -0.1490 -0.0004 -0.0246
v  -0.1608 -0.0100 -0.0117
v  -0.1266 0.0597 0.0093
v  -0.1713 0.0799 0.0150
v  -0.2031 0.0642 0.0032
v  -0.1392 -0.0027 0.0113
v  -0.1831 0.0703 0.0280
v  -0.1798 0.0056 -0.0327
v  -0.1562 0.0250 -0.0434
v  -0.2088 0.0402 -0.0177
v  -0.2116 0.0349 0.0141
v  -0.1523 0.0762 0.0199
v  -0.1621 0.0785 -0.0160
v  -0.1523 0.0643 0.0360
v  -0.1700 -0.0086 0.0193
v  -0.1424 0.0050 0.0295
v  -0.1621 0.0305 0.0485
v  -0.1798 -0.0063 -0.0166
v  -0.1706 0.0686 -0.0312
v  -0.0343 0.0025 -0.0412
v  0.0016 0.0392 -0.0412
v  -0.0301 -0.0051 0.0164
v  -0.1676 0.0492 0.0273
v  -0.1641 0.1254 -0.0131
v  -0.1382 0.1173 -0.0669
v  -0.0781 0.1778 0.0175
v  -0.0586 0.0996 0.0967
v  0.0082 0.1295 0.0017
v  -0.0874 0.0076 -0.0645
v  -0.0867 0.1082 -0.0926
v  0.0016 0.0392 0.0445
v  -0.0874 0.0076 0.0678
v  -0.1244 -0.0066 0.0017
v  -0.1247 0.1657 -0.0131
v  -0.0674 0.1530 -0.0645
v  -0.0486 0.1713 -0.0240
v  -0.1490 0.0704 0.0690
v  -0.1160 0.1401 0.0702
v  -0.0407 0.0463 0.0869
v  -0.1366 0.0423 -0.0677
v  -0.0344 0.0217 0.0947
v  -0.0520 0.0511 0.0881
v  -0.0480 0.0489 0.0535
v  0.0442 0.0417 0.0645
v  0.0396 0.0547 0.0481
v  0.0473 0.0519 0.0821
v  0.0161 0.0708 0.1209
v  0.0375 0.0845 0.0897
v  0.0123 0.0876 0.1136
v  -0.0502 0.0724 0.0872
v  -0.0244 0.1029 0.0813
v  -0.0478 0.0801 0.0691
v  0.0334 0.0340 0.0487
v  -0.0163 0.0085 0.0680
v  0.0162 0.0319 0.0360
v  0.0284 0.0923 0.0570
v  0.0210 0.0828 0.0391
v  0.0005 0.0889 0.0363
v  0.0184 0.0112 0.0704
v  -0.0065 0.0252 0.1154
v  -0.0177 0.0629 0.1242
v  -0.0060 0.0565 0.0251
v  -0.0270 0.0313 0.1126
v  0.0125 0.1043 0.0652
v  0.0401 0.0831 0.0683
v  -0.0082 0.0936 0.1108
v  -0.0394 0.0800 0.1030
v  -0.0012 0.0119 0.0993
v  0.0259 0.0382 0.1133
v  -0.0185 0.0097 0.0865
v  -0.0318 0.0759 0.0384
v  -0.0221 0.0432 0.0308
v  -0.0435 0.0296 0.0620
v  -0.0048 0.1022 0.0524
v  0.0321 0.0588 0.1127
v  -0.0096 0.1015 -0.0045
v  -0.0408 0.0667 -0.0052
v  -0.0086 0.0330 -0.0011
v  0.0524 0.0788 -0.0999
v  0.0515 0.0502 -0.1011
v  0.0321 0.0907 -0.1142
v  -0.0361 0.1077 -0.1015
v  -0.0077 0.0709 -0.1289
v  -0.0467 0.0861 -0.1080
v  -0.0564 0.0502 -0.0227
v  -0.0590 0.0288 -0.0723
v  -0.0467 0.0259 -0.0272
v  0.0638 0.0646 -0.0792
v  0.0351 0.0888 -0.0095
v  0.0638 0.0473 -0.0560
v  0.0056 0.0275 -0.1180
v  0.0226 0.0135 -0.0993
v  0.0056 -0.0005 -0.0805
v  0.0550 0.1002 -0.0502
v  -0.0096 0.1295 -0.0420
v  -0.0555 0.1067 -0.0590
v  0.0368 0.0102 -0.0473
v  -0.0266 0.1155 -0.0233
v  -0.0219 0.0221 -0.1109
v  0.0122 0.0501 -0.1264
v  -0.0637 0.0721 -0.0893
v  -0.0678 0.0644 -0.0433
v  0.0179 0.1242 -0.0349
v  0.0037 0.1275 -0.0868
v  0.0179 0.1069 -0.0117
v  -0.0077 0.0015 -0.0357
v  0.0321 0.0212 -0.0210
v  0.0037 0.0581 0.0064
v  -0.0219 0.0048 -0.0877
v  -0.0086 0.1131 -0.1087
v  0.0546 0.0541 -0.0386
v  0.0372 0.0347 -0.0390
v  0.0552 0.0159 -0.0367
v  0.0892 0.0415 -0.0918
v  0.0887 0.0255 -0.0925
v  0.0779 0.0481 -0.0998
v  0.0398 0.0576 -0.0927
v  0.0557 0.0371 -0.1080
v  0.0339 0.0455 -0.0963
v  0.0285 0.0255 -0.0487
v  0.0271 0.0135 -0.0764
v  0.0339 0.0119 -0.0513
v  0.0955 0.0335 -0.0803
v  0.0796 0.0471 -0.0414
v  0.0955 0.0239 -0.0673
v  0.0631 0.0128 -0.1019
v  0.0726 0.0050 -0.0914
v  0.0631 -0.0028 -0.0810
v  0.0907 0.0534 -0.0641
v  0.0546 0.0697 -0.0595
v  0.0290 0.0570 -0.0690
v  0.0805 0.0032 -0.0625
v  0.0451 0.0619 -0.0491
v  0.0478 0.0098 -0.0979
v  0.0668 0.0254 -0.1066
v  0.0244 0.0377 -0.0859
v  0.0222 0.0334 -0.0602
v  0.0700 0.0667 -0.0555
v  0.0620 0.0686 -0.0845
v  0.0700 0.0571 -0.0426
v  0.0557 -0.0016 -0.0560
v  0.0779 0.0094 -0.0478
v  0.0620 0.0299 -0.0325
v  0.0478 0.0002 -0.0850
v  0.0552 0.0606 -0.0967
v  0.0773 -0.0004 -0.0269
v  0.0392 0.0343 -0.0517
v  0.0786 0.0643 -0.0803
v  0.1531 0.0915 0.0500
v  0.1520 0.1204 0.0303
v  0.1283 0.0904 0.0727
v  0.0449 0.0643 0.0727
v  0.0796 0.1204 0.0727
v  0.0319 0.0904 0.0632
v  0.0201 0.0632 -0.0466
v  0.0169 0.1204 -0.0136
v  0.0319 0.0904 -0.0599
v  0.1670 0.0904 0.0193
v  0.1320 0.0157 -0.0313
v  0.1670 0.0904 -0.0160
v  0.0959 0.1551 0.0303
v  0.1167 0.1551 0.0017
v  0.0959 0.1551 -0.0269
v  0.1563 0.0343 0.0170
v  0.0773 -0.0004 0.0303
v  0.0212 0.0343 0.0303
v  0.1340 0.1204 -0.0517
v  0.0565 -0.0004 0.0017
v  0.0623 0.1551 0.0193
v  0.1039 0.1390 0.0550
v  0.0111 0.0904 0.0346
v  0.0062 0.0643 -0.0160
v  0.1109 -0.0004 0.0193
v  0.0936 0.0343 0.0727
v  0.1109 -0.0004 -0.0160
v  0.0796 0.1204 -0.0694
v  0.1283 0.0904 -0.0694
v  0.0936 0.0343 -0.0694
v  0.0623 0.1551 -0.0160
v  0.0786 0.0643 0.0836
v  0.1608 0.0606 0.0409
v  0.1392 0.0365 0.0405
v  0.1615 0.0131 0.0433
v  0.2037 0.0449 -0.0251
v  0.2031 0.0251 -0.0259
v  0.1896 0.0531 -0.0350
v  0.1424 0.0649 -0.0262
v  0.1621 0.0394 -0.0452
v  0.1351 0.0499 -0.0307
v  0.1284 0.0251 0.0284
v  0.1266 0.0102 -0.0060
v  0.1351 0.0082 0.0252
v  0.2116 0.0350 -0.0108
v  0.1917 0.0518 0.0375
v  0.2116 0.0231 0.0053
v  0.1713 0.0093 -0.0376
v  0.1831 -0.0004 -0.0246
v  0.1713 -0.0100 -0.0117
v  0.2055 0.0597 0.0093
v  0.1608 0.0799 0.0150
v  0.1290 0.0642 0.0032
v  0.1929 -0.0027 0.0113
v  0.1490 0.0703 0.0280
v  0.1523 0.0056 -0.0327
v  0.1759 0.0250 -0.0434
v  0.1233 0.0402 -0.0177
v  0.1205 0.0349 0.0141
v  0.1798 0.0762 0.0199
v  0.1700 0.0785 -0.0160
v  0.1798 0.0643 0.0360
v  0.1621 -0.0086 0.0193
v  0.1896 0.0050 0.0295
v  0.1700 0.0305 0.0485
v  0.1523 -0.0063 -0.0166
v  0.1615 0.0686 -0.0312
# 231 vertices

vn -0.0759 0.0477 0.9960
vn 0.5839 0.0165 -0.8117
vn -0.3035 0.4076 -0.8612
vn -0.8924 -0.3948 0.2184
vn 0.9053 0.3407 0.2537
vn 0.0000 -0.8020 -0.5974
vn 0.6405 0.6919 -0.3332
vn -0.3914 0.9067 -0.1572
vn -0.4794 -0.3615 0.7997
vn 0.4911 -0.8504 -0.1885
vn -0.4911 0.4241 0.7609
vn 0.9049 -0.1114 0.4108
vn -0.5141 -0.1622 -0.8422
vn 0.4911 -0.4241 -0.7609
vn -0.9822 -0.1504 -0.1121
vn -0.7560 0.4088 0.5113
vn 0.1876 0.9822 0.0117
vn 0.0000 0.8020 0.5974
vn 0.1161 -0.7332 0.6700
vn 0.5680 -0.1632 0.8067
vn 0.7846 -0.6190 -0.0340
vn 0.7994 -0.5449 -0.2531
vn -0.3035 -0.7085 0.6371
vn -0.5141 -0.8534 0.0857
vn 0.0220 0.2777 -0.9604
vn 0.6145 0.7176 -0.3277
vn -0.7187 -0.2503 -0.6487
vn 0.1876 0.2924 0.9377
vn 0.6071 0.6373 0.4747
vn -0.0833 -0.9234 0.3747
vn 0.7831 -0.1386 0.6062
vn -0.7947 0.4953 -0.3510
vn -0.9635 0.2647 -0.0410
vn -0.1876 -0.2924 -0.9377
vn 0.4994 0.3834 -0.7769
vn 0.5141 0.8534 -0.0857
vn 0.3035 0.7085 -0.6371
vn -0.5098 -0.3497 0.7860
vn -0.4911 0.8504 0.1885
vn 0.3035 -0.4076 0.8612
vn -0.5682 0.0319 0.8223
vn -0.1876 -0.9822 -0.0117
vn 0.3914 -0.9067 0.1572
vn -0.6071 -0.6373 -0.4747
vn 0.5415 -0.0132 -0.8406
vn 0.6734 -0.5929 -0.4416
vn 0.7947 -0.4953 0.3510
vn -0.2764 0.8668 -0.4151
vn -0.5448 -0.3565 -0.7590
vn 0.8910 0.3975 -0.2194
vn 0.8732 -0.0062 -0.4873
vn -0.8910 -0.3975 0.2194
vn -0.8089 0.1685 0.5633
vn 0.7090 -0.6905 -0.1428
vn -0.8972 -0.1740 -0.4060
vn 0.4817 0.6801 0.5526
vn 0.3290 -0.2567 -0.9088
vn 0.7599 0.2320 0.6072
vn -0.5813 -0.6657 0.4679
vn -0.3524 0.7376 -0.5759
vn 0.6421 0.5420 -0.5422
vn -0.2156 -0.2304 0.9489
vn -0.8530 0.2745 0.4439
vn 0.8144 -0.5803 -0.0000
vn -0.1906 -0.2392 0.9521
vn 0.0443 -0.9815 -0.1861
vn -0.1255 -0.2668 -0.9555
vn 0.9973 -0.0737 -0.0000
vn 0.6798 0.2729 -0.6808
vn -0.0529 0.9539 -0.2954
vn -0.4222 0.8528 0.3074
vn 0.2021 0.7214 0.6624
vn -0.3310 0.1411 0.9330
vn 0.3631 -0.7254 0.5848
vn -0.0192 -0.9753 0.2203
vn 0.6115 0.2150 -0.7615
vn -0.2737 0.5938 -0.7566
vn -0.9510 -0.0165 -0.3088
vn -0.4480 0.0004 -0.8940
vn -0.5861 -0.5859 0.5597
vn -0.8897 0.4176 0.1845
vn 0.3493 -0.3402 -0.8731
vn -0.0401 -0.9910 -0.1277
vn -0.4983 -0.7476 -0.4391
vn -0.8177 -0.5284 -0.2283
vn -0.6535 0.6364 -0.4098
vn -0.6880 0.6700 0.2789
vn 0.7124 0.1108 0.6929
vn 0.4549 -0.6850 0.5691
vn -0.2310 0.9225 -0.3092
vn 0.5066 0.8314 0.2283
vn -0.8491 -0.5242 -0.0658
vn 0.9743 0.0737 -0.2127
vn 0.6480 0.4266 0.6310
vn -0.7324 0.6551 0.1855
vn 0.3373 -0.8901 -0.3064
vn 0.3061 0.7807 -0.5448
vn 0.7661 -0.6053 0.2161
vn 0.1382 -0.1866 0.9727
vn -0.9907 0.0639 -0.1203
vn 0.2113 0.2820 -0.9359
vn -0.7822 -0.3529 0.5135
vn 0.1026 -0.7194 -0.6870
vn 0.3912 0.8690 0.3029
vn 0.7822 0.3529 -0.5135
vn -0.4497 0.7524 0.4813
vn -0.7168 -0.0445 0.6959
vn 0.3154 -0.6788 0.6632
vn -0.3061 -0.7807 0.5448
vn -0.6628 -0.0219 -0.7485
vn -0.4097 -0.6985 -0.5868
vn 0.2893 -0.1146 -0.9504
vn 0.4947 -0.0460 -0.8678
vn -0.8465 0.2409 -0.4748
vn -0.5344 0.7540 -0.3820
vn 0.8676 0.3536 0.3498
vn 0.7541 -0.6068 0.2511
vn 0.1055 0.9395 0.3259
vn -0.6082 -0.7935 -0.0203
vn 0.0702 -0.9949 0.0722
vn -0.5664 0.3701 -0.7364
vn -0.1276 -0.7356 -0.6653
vn -0.0058 0.4011 0.9160
vn -0.4021 0.4667 0.7877
vn 0.6082 0.7935 0.0203
vn 0.9873 -0.1011 0.1223
vn 0.5344 -0.7540 0.3820
vn 0.8465 -0.2409 0.4748
vn -0.9924 0.0835 -0.0908
vn -0.2113 -0.2820 0.9359
vn -0.6480 -0.4266 -0.6310
vn -0.9637 -0.1166 0.2400
vn -0.3154 0.6788 -0.6632
vn -0.1382 0.1866 -0.9727
vn -0.0702 0.9949 -0.0722
vn 0.9694 0.1325 -0.2067
vn 0.5739 0.1618 -0.8028
vn 0.0058 -0.4011 -0.9160
vn 0.4009 -0.0941 0.9113
vn 0.6479 0.4266 0.6310
vn 0.2616 0.9526 0.1551
vn 0.7332 -0.6551 -0.1824
vn 0.8510 -0.2691 -0.4509
vn -0.7332 0.6551 0.1824
vn -0.8428 0.0959 0.5296
vn 0.9049 -0.1115 0.4108
vn -0.0759 -0.6332 -0.7702
vn 0.5839 0.4716 0.6608
vn -0.3035 0.1876 0.9342
vn -0.8924 0.1862 -0.4110
vn 0.9053 -0.4248 -0.0000
vn 0.0000 1.0000 0.0000
vn 0.6405 -0.3558 0.6805
vn -0.3914 -0.6332 0.6677
vn -0.4794 -0.1878 -0.8573
vn 0.4911 0.7947 -0.3568
vn -0.4911 -0.7947 -0.3568
vn 0.9049 -0.1560 -0.3960
vn -0.5141 0.6332 0.5785
vn 0.4911 0.7947 0.3568
vn -0.9822 0.1876 0.0000
vn -0.7560 -0.6332 -0.1659
vn 0.1876 -0.7947 0.5774
vn -0.0000 -1.0000 0.0000
vn 0.1161 0.1878 -0.9753
vn 0.5680 -0.3510 -0.7444
vn 0.7846 0.5167 -0.3425
vn 0.7994 0.5882 -0.1225
vn -0.3035 0.1876 -0.9342
vn -0.5141 0.6332 -0.5785
vn 0.0220 0.3510 0.9361
vn 0.6145 -0.3798 0.6915
vn 0.0000 1.0000 -0.0000
vn -0.7187 0.5882 0.3707
vn 0.1876 -0.7947 -0.5774
vn 0.6071 -0.7947 -0.0000
vn -0.0833 0.5167 -0.8521
vn 0.7831 -0.2509 -0.5690
vn -0.7947 -0.1876 0.5774
vn -0.9635 -0.1878 0.1910
vn -0.1876 0.7947 0.5774
vn 0.4994 0.1566 0.8521
vn 0.5141 -0.6332 0.5785
vn 0.3035 -0.1876 0.9342
vn -0.5098 -0.1891 -0.8392
vn -0.4911 -0.7947 0.3568
vn 0.3035 -0.1876 -0.9342
vn -0.5682 -0.5167 -0.6404
vn -0.1876 0.7947 -0.5774
vn 0.3914 0.6332 -0.6677
vn -0.6071 0.7947 0.0000
vn 0.5415 0.5128 0.6663
vn 0.6734 0.7393 -0.0000
vn 0.7947 0.1876 -0.5774
vn -0.2764 -0.4472 0.8507
vn -0.5448 0.7393 0.3958
vn -0.0000 -1.0000 -0.0000
vn 0.8910 -0.1877 0.4134
vn 0.8732 0.2960 0.3871
vn -0.8910 0.1877 -0.4134
vn -0.8089 -0.4716 -0.3511
# 201 vertex normals

o GeoSphere006
g GeoSphere006
usemtl wire_224086086
s off
f 1//1 2//1 3//1 
f 4//2 5//2 6//2 
f 7//3 8//3 9//3 
f 10//4 11//4 12//4 
f 13//5 14//5 15//5 
f 16//6 17//6 18//6 
f 19//7 4//7 6//7 
f 20//8 7//8 21//8 
f 12//9 3//9 2//9 
f 17//10 22//10 18//10 
f 23//11 2//11 1//11 
f 13//12 19//12 14//12 
f 24//13 9//13 8//13 
f 16//14 25//14 17//14 
f 26//15 11//15 27//15 
f 23//16 21//16 27//16 
f 28//17 29//17 20//17 
f 30//18 28//18 20//18 
f 3//19 31//19 32//19 
f 32//20 14//20 33//20 
f 17//21 5//21 13//21 
f 17//22 13//22 22//22 
f 12//23 31//23 3//23 
f 34//24 31//24 12//24 
f 25//25 35//25 6//25 
f 6//26 29//26 19//26 
f 16//6 18//6 34//6 
f 24//27 11//27 9//27 
f 30//28 33//28 14//28 
f 30//29 14//29 28//29 
f 18//30 22//30 32//30 
f 14//31 32//31 15//31 
f 9//32 21//32 7//32 
f 26//33 27//33 21//33 
f 16//34 8//34 25//34 
f 35//35 25//35 8//35 
f 28//36 19//36 29//36 
f 14//29 19//29 28//29 
f 20//8 29//8 7//8 
f 35//37 29//37 6//37 
f 12//38 2//38 10//38 
f 23//16 27//16 2//16 
f 20//39 21//39 23//39 
f 30//18 20//18 23//18 
f 32//40 33//40 3//40 
f 1//41 3//41 33//41 
f 18//42 31//42 34//42 
f 18//43 32//43 31//43 
f 34//44 11//44 24//44 
f 34//24 12//24 11//24 
f 25//14 5//14 17//14 
f 6//45 5//45 25//45 
f 15//46 22//46 13//46 
f 32//47 22//47 15//47 
f 35//48 7//48 29//48 
f 35//3 8//3 7//3 
f 26//49 9//49 11//49 
f 26//32 21//32 9//32 
f 30//18 23//18 1//18 
f 1//28 33//28 30//28 
f 16//6 34//6 24//6 
f 24//34 8//34 16//34 
f 4//50 19//50 13//50 
f 13//51 5//51 4//51 
f 27//52 11//52 10//52 
f 10//53 2//53 27//53 
f 36//54 37//54 38//54 
f 39//55 40//55 41//55 
f 42//56 43//56 44//56 
f 37//57 45//57 46//57 
f 47//58 44//58 43//58 
f 48//59 39//59 49//59 
f 50//60 51//60 41//60 
f 52//61 44//61 51//61 
f 43//62 53//62 48//62 
f 39//63 54//63 40//63 
f 47//64 38//64 37//64 
f 43//65 48//65 55//65 
f 38//66 49//66 45//66 
f 46//67 45//67 56//67 
f 44//68 47//68 37//68 
f 37//69 51//69 44//69 
f 51//70 50//70 42//70 
f 42//71 50//71 54//71 
f 42//72 54//72 43//72 
f 43//73 54//73 53//73 
f 38//74 55//74 48//74 
f 38//75 48//75 49//75 
f 46//76 51//76 37//76 
f 46//77 41//77 51//77 
f 41//78 56//78 39//78 
f 46//79 56//79 41//79 
f 53//80 39//80 48//80 
f 39//81 53//81 54//81 
f 37//82 36//82 45//82 
f 38//83 45//83 36//83 
f 49//84 56//84 45//84 
f 49//85 39//85 56//85 
f 50//86 41//86 40//86 
f 50//87 40//87 54//87 
f 55//88 47//88 43//88 
f 38//89 47//89 55//89 
f 52//90 51//90 42//90 
f 42//91 44//91 52//91 
f 57//92 58//92 59//92 
f 60//93 61//93 62//93 
f 63//94 64//94 65//94 
f 66//95 67//95 68//95 
f 69//96 70//96 71//96 
f 72//97 73//97 74//97 
f 75//98 60//98 62//98 
f 76//99 63//99 77//99 
f 68//100 59//100 58//100 
f 73//101 78//101 74//101 
f 79//102 58//102 57//102 
f 69//103 75//103 70//103 
f 80//104 65//104 64//104 
f 72//105 81//105 73//105 
f 82//106 67//106 83//106 
f 79//107 77//107 83//107 
f 84//108 85//108 76//108 
f 86//109 84//109 76//109 
f 59//110 87//110 88//110 
f 88//111 70//111 89//111 
f 73//112 61//112 69//112 
f 73//113 69//113 78//113 
f 68//114 87//114 59//114 
f 90//115 87//115 68//115 
f 81//116 91//116 62//116 
f 62//117 85//117 75//117 
f 72//97 74//97 90//97 
f 80//118 67//118 65//118 
f 86//119 89//119 70//119 
f 86//120 70//120 84//120 
f 74//121 78//121 88//121 
f 70//122 88//122 71//122 
f 65//123 77//123 63//123 
f 82//124 83//124 77//124 
f 72//125 64//125 81//125 
f 91//126 81//126 64//126 
f 84//127 75//127 85//127 
f 70//120 75//120 84//120 
f 76//99 85//99 63//99 
f 91//128 85//128 62//128 
f 68//129 58//129 66//129 
f 79//107 83//107 58//107 
f 76//130 77//130 79//130 
f 86//109 76//109 79//109 
f 88//131 89//131 59//131 
f 57//132 59//132 89//132 
f 74//133 87//133 90//133 
f 74//134 88//134 87//134 
f 90//135 67//135 80//135 
f 90//115 68//115 67//115 
f 81//105 61//105 73//105 
f 62//136 61//136 81//136 
f 71//137 78//137 69//137 
f 88//138 78//138 71//138 
f 91//139 63//139 85//139 
f 91//140 64//140 63//140 
f 82//141 65//141 67//141 
f 82//123 77//123 65//123 
f 86//109 79//109 57//109 
f 57//119 89//119 86//119 
f 72//97 90//97 80//97 
f 80//125 64//125 72//125 
f 60//142 75//142 69//142 
f 69//143 61//143 60//143 
f 83//144 67//144 66//144 
f 66//145 58//145 83//145 
f 92//1 93//1 94//1 
f 95//2 96//2 97//2 
f 98//3 99//3 100//3 
f 101//4 102//4 103//4 
f 104//5 105//5 106//5 
f 107//6 108//6 109//6 
f 110//7 95//7 97//7 
f 111//8 98//8 112//8 
f 103//9 94//9 93//9 
f 108//10 113//10 109//10 
f 114//11 93//11 92//11 
f 104//146 110//146 105//146 
f 115//13 100//13 99//13 
f 107//14 116//14 108//14 
f 117//15 102//15 118//15 
f 114//16 112//16 118//16 
f 119//17 120//17 111//17 
f 121//18 119//18 111//18 
f 94//19 122//19 123//19 
f 123//20 105//20 124//20 
f 108//21 96//21 104//21 
f 108//22 104//22 113//22 
f 103//23 122//23 94//23 
f 125//24 122//24 103//24 
f 116//25 126//25 97//25 
f 97//26 120//26 110//26 
f 107//6 109//6 125//6 
f 115//27 102//27 100//27 
f 121//28 124//28 105//28 
f 121//29 105//29 119//29 
f 109//30 113//30 123//30 
f 105//31 123//31 106//31 
f 100//32 112//32 98//32 
f 117//33 118//33 112//33 
f 107//34 99//34 116//34 
f 126//35 116//35 99//35 
f 119//36 110//36 120//36 
f 105//29 110//29 119//29 
f 111//8 120//8 98//8 
f 126//37 120//37 97//37 
f 103//38 93//38 101//38 
f 114//16 118//16 93//16 
f 111//39 112//39 114//39 
f 121//18 111//18 114//18 
f 123//40 124//40 94//40 
f 92//41 94//41 124//41 
f 109//42 122//42 125//42 
f 109//43 123//43 122//43 
f 125//44 102//44 115//44 
f 125//24 103//24 102//24 
f 116//14 96//14 108//14 
f 97//45 96//45 116//45 
f 106//46 113//46 104//46 
f 123//47 113//47 106//47 
f 126//48 98//48 120//48 
f 126//3 99//3 98//3 
f 117//49 100//49 102//49 
f 117//32 112//32 100//32 
f 121//18 114//18 92//18 
f 92//28 124//28 121//28 
f 107//6 125//6 115//6 
f 115//34 99//34 107//34 
f 95//50 110//50 104//50 
f 104//51 96//51 95//51 
f 118//52 102//52 101//52 
f 101//53 93//53 118//53 
f 127//1 128//1 129//1 
f 130//2 131//2 132//2 
f 133//3 134//3 135//3 
f 136//4 137//4 138//4 
f 139//5 140//5 141//5 
f 142//6 143//6 144//6 
f 145//7 130//7 132//7 
f 146//8 133//8 147//8 
f 138//9 129//9 128//9 
f 143//10 148//10 144//10 
f 149//11 128//11 127//11 
f 139//12 145//12 140//12 
f 150//13 135//13 134//13 
f 142//14 151//14 143//14 
f 152//15 137//15 153//15 
f 149//16 147//16 153//16 
f 154//17 155//17 146//17 
f 156//18 154//18 146//18 
f 129//19 157//19 158//19 
f 158//20 140//20 159//20 
f 143//21 131//21 139//21 
f 143//22 139//22 148//22 
f 138//23 157//23 129//23 
f 160//24 157//24 138//24 
f 151//25 161//25 132//25 
f 132//26 155//26 145//26 
f 142//6 144//6 160//6 
f 150//27 137//27 135//27 
f 156//28 159//28 140//28 
f 156//29 140//29 154//29 
f 144//30 148//30 158//30 
f 140//31 158//31 141//31 
f 135//32 147//32 133//32 
f 152//33 153//33 147//33 
f 142//34 134//34 151//34 
f 161//35 151//35 134//35 
f 154//36 145//36 155//36 
f 140//29 145//29 154//29 
f 146//8 155//8 133//8 
f 161//37 155//37 132//37 
f 138//38 128//38 136//38 
f 149//16 153//16 128//16 
f 146//39 147//39 149//39 
f 156//18 146//18 149//18 
f 158//40 159//40 129//40 
f 127//41 129//41 159//41 
f 144//42 157//42 160//42 
f 144//43 158//43 157//43 
f 160//44 137//44 150//44 
f 160//24 138//24 137//24 
f 151//14 131//14 143//14 
f 132//45 131//45 151//45 
f 141//46 148//46 139//46 
f 158//47 148//47 141//47 
f 161//48 133//48 155//48 
f 161//3 134//3 133//3 
f 152//49 135//49 137//49 
f 152//32 147//32 135//32 
f 156//18 149//18 127//18 
f 127//28 159//28 156//28 
f 142//6 160//6 150//6 
f 150//34 134//34 142//34 
f 130//50 145//50 139//50 
f 139//51 131//51 130//51 
f 153//52 137//52 136//52 
f 136//53 128//53 153//53 
f 162//147 163//147 164//147 
f 165//148 166//148 167//148 
f 168//149 169//149 170//149 
f 171//150 172//150 173//150 
f 174//151 175//151 176//151 
f 177//152 178//152 179//152 
f 180//153 165//153 167//153 
f 181//154 168//154 182//154 
f 173//155 164//155 163//155 
f 178//156 183//156 179//156 
f 184//157 163//157 162//157 
f 174//158 180//158 175//158 
f 185//159 170//159 169//159 
f 177//160 186//160 178//160 
f 187//161 172//161 188//161 
f 184//162 182//162 188//162 
f 189//163 190//163 181//163 
f 191//164 189//164 181//164 
f 164//165 192//165 193//165 
f 193//166 175//166 194//166 
f 178//167 166//167 174//167 
f 178//168 174//168 183//168 
f 173//169 192//169 164//169 
f 195//170 192//170 173//170 
f 186//171 196//171 167//171 
f 167//172 190//172 180//172 
f 177//173 179//173 195//173 
f 185//174 172//174 170//174 
f 191//175 194//175 175//175 
f 191//176 175//176 189//176 
f 179//177 183//177 193//177 
f 175//178 193//178 176//178 
f 170//179 182//179 168//179 
f 187//180 188//180 182//180 
f 177//181 169//181 186//181 
f 196//182 186//182 169//182 
f 189//183 180//183 190//183 
f 175//176 180//176 189//176 
f 181//154 190//154 168//154 
f 196//184 190//184 167//184 
f 173//185 163//185 171//185 
f 184//162 188//162 163//162 
f 181//186 182//186 184//186 
f 191//164 181//164 184//164 
f 193//187 194//187 164//187 
f 162//188 164//188 194//188 
f 179//189 192//189 195//189 
f 179//190 193//190 192//190 
f 195//191 172//191 185//191 
f 195//170 173//170 172//170 
f 186//160 166//160 178//160 
f 167//192 166//192 186//192 
f 176//193 183//193 174//193 
f 193//194 183//194 176//194 
f 196//195 168//195 190//195 
f 196//149 169//149 168//149 
f 187//196 170//196 172//196 
f 187//179 182//179 170//179 
f 191//197 184//197 162//197 
f 162//175 194//175 191//175 
f 177//173 195//173 185//173 
f 185//181 169//181 177//181 
f 165//198 180//198 174//198 
f 174//199 166//199 165//199 
f 188//200 172//200 171//200 
f 171//201 163//201 188//201 
f 197//1 198//1 199//1 
f 200//2 201//2 202//2 
f 203//3 204//3 205//3 
f 206//4 207//4 208//4 
f 209//5 210//5 211//5 
f 212//6 213//6 214//6 
f 215//7 200//7 202//7 
f 216//8 203//8 217//8 
f 208//9 199//9 198//9 
f 213//10 218//10 214//10 
f 219//11 198//11 197//11 
f 209//12 215//12 210//12 
f 220//13 205//13 204//13 
f 212//14 221//14 213//14 
f 222//15 207//15 223//15 
f 219//16 217//16 223//16 
f 224//17 225//17 216//17 
f 226//18 224//18 216//18 
f 199//19 227//19 228//19 
f 228//20 210//20 229//20 
f 213//21 201//21 209//21 
f 213//22 209//22 218//22 
f 208//23 227//23 199//23 
f 230//24 227//24 208//24 
f 221//25 231//25 202//25 
f 202//26 225//26 215//26 
f 212//6 214//6 230//6 
f 220//27 207//27 205//27 
f 226//28 229//28 210//28 
f 226//29 210//29 224//29 
f 214//30 218//30 228//30 
f 210//31 228//31 211//31 
f 205//32 217//32 203//32 
f 222//33 223//33 217//33 
f 212//34 204//34 221//34 
f 231//35 221//35 204//35 
f 224//36 215//36 225//36 
f 210//29 215//29 224//29 
f 216//8 225//8 203//8 
f 231//37 225//37 202//37 
f 208//38 198//38 206//38 
f 219//16 223//16 198//16 
f 216//39 217//39 219//39 
f 226//18 216//18 219//18 
f 228//40 229//40 199//40 
f 197//41 199//41 229//41 
f 214//42 227//42 230//42 
f 214//43 228//43 227//43 
f 230//44 207//44 220//44 
f 230//24 208//24 207//24 
f 221//14 201//14 213//14 
f 202//45 201//45 221//45 
f 211//46 218//46 209//46 
f 228//47 218//47 211//47 
f 231//48 203//48 225//48 
f 231//3 204//3 203//3 
f 222//49 205//49 207//49 
f 222//32 217//32 205//32 
f 226//18 219//18 197//18 
f 197//28 229//28 226//28 
f 212//6 230//6 220//6 
f 220//34 204//34 212//34 
f 200//50 215//50 209//50 
f 209//51 201//51 200//51 
f 223//52 207//52 206//52 
f 206//53 198//53 223//53 
# 434 faces

