# 3ds Max Wavefront OBJ Exporter v0.97b - (c)2007 guruware
# File Created: 22.03.2020 12:17:14

#
# object cloud_2
#

v  -0.1713 0.0606 0.0409
v  -0.1929 0.0365 0.0405
v  -0.1706 0.0131 0.0433
v  -0.1284 0.0449 -0.0251
v  -0.1290 0.0251 -0.0259
v  -0.1424 0.0531 -0.0350
v  -0.1896 0.0649 -0.0262
v  -0.1700 0.0394 -0.0452
v  -0.1970 0.0499 -0.0307
v  -0.2037 0.0251 0.0284
v  -0.2055 0.0102 -0.0060
v  -0.1970 0.0082 0.0252
v  -0.1205 0.0350 -0.0108
v  -0.1403 0.0518 0.0375
v  -0.1205 0.0231 0.0053
v  -0.1608 0.0093 -0.0376
v  -0.1490 -0.0004 -0.0246
v  -0.1608 -0.0100 -0.0117
v  -0.1266 0.0597 0.0093
v  -0.1713 0.0799 0.0150
v  -0.2031 0.0642 0.0032
v  -0.1392 -0.0027 0.0113
v  -0.1831 0.0703 0.0280
v  -0.1798 0.0056 -0.0327
v  -0.1562 0.0250 -0.0434
v  -0.2088 0.0402 -0.0177
v  -0.2116 0.0349 0.0141
v  -0.1523 0.0762 0.0199
v  -0.1621 0.0785 -0.0160
v  -0.1523 0.0643 0.0360
v  -0.1700 -0.0086 0.0193
v  -0.1424 0.0050 0.0295
v  -0.1621 0.0305 0.0485
v  -0.1798 -0.0063 -0.0166
v  -0.1706 0.0686 -0.0312
v  -0.0343 0.0025 -0.0412
v  0.0016 0.0392 -0.0412
v  -0.0301 -0.0051 0.0164
v  -0.1676 0.0492 0.0273
v  -0.1641 0.1254 -0.0131
v  -0.1382 0.1173 -0.0669
v  -0.0781 0.1778 0.0175
v  -0.0586 0.0996 0.0967
v  0.0082 0.1295 0.0017
v  -0.0874 0.0076 -0.0645
v  -0.0867 0.1082 -0.0926
v  0.0016 0.0392 0.0445
v  -0.0874 0.0076 0.0678
v  -0.1244 -0.0066 0.0017
v  -0.1247 0.1657 -0.0131
v  -0.0674 0.1530 -0.0645
v  -0.0486 0.1713 -0.0240
v  -0.1490 0.0704 0.0690
v  -0.1160 0.1401 0.0702
v  -0.0407 0.0463 0.0869
v  -0.1366 0.0423 -0.0677
v  0.0698 0.0981 -0.1204
v  0.0096 0.1050 -0.1042
v  0.0195 0.1574 -0.0712
v  0.1371 0.0794 0.0184
v  0.1151 0.1011 0.0412
v  0.1259 0.0443 0.0171
v  0.0612 -0.0049 -0.0335
v  0.0697 0.0215 0.0333
v  0.0344 0.0003 -0.0140
v  -0.0170 0.0936 -0.0790
v  -0.0276 0.0682 -0.0118
v  -0.0236 0.1161 -0.0522
v  0.1358 0.1157 0.0118
v  0.1106 0.1344 -0.0896
v  0.1191 0.1490 0.0008
v  0.0504 0.0749 0.0599
v  0.0557 0.1132 0.0571
v  0.0235 0.1286 0.0421
v  0.1477 0.1048 -0.0487
v  0.0967 0.0444 -0.1027
v  0.0320 0.0181 -0.0840
v  0.0603 0.1683 0.0105
v  0.0645 0.0598 -0.1176
v  0.0149 0.0667 0.0467
v  0.0759 0.0539 0.0537
v  0.0022 0.0158 -0.0289
v  -0.0156 0.0573 -0.0724
v  0.1219 0.0731 -0.0963
v  0.1173 0.0179 -0.0497
v  0.1053 0.1063 -0.1072
v  0.0028 0.1551 -0.0109
v  0.0590 0.1779 -0.0270
v  0.0504 0.1515 -0.0938
v  -0.0018 0.0999 0.0357
v  0.0967 0.0033 -0.0203
v  0.0269 0.0606 0.0885
v  0.0053 0.0365 0.0880
v  0.0276 0.0131 0.0908
v  0.0698 0.0449 0.0225
v  0.0692 0.0251 0.0217
v  0.0558 0.0531 0.0126
v  0.0086 0.0649 0.0214
v  0.0282 0.0394 0.0024
v  0.0012 0.0499 0.0169
v  -0.0055 0.0251 0.0759
v  -0.0073 0.0102 0.0416
v  0.0012 0.0082 0.0728
v  0.0777 0.0350 0.0368
v  0.0579 0.0518 0.0850
v  0.0777 0.0231 0.0528
v  0.0374 0.0093 0.0099
v  0.0492 -0.0004 0.0229
v  0.0374 -0.0100 0.0359
v  0.0716 0.0597 0.0568
v  0.0269 0.0799 0.0625
v  -0.0049 0.0642 0.0508
v  0.0590 -0.0027 0.0589
v  0.0151 0.0703 0.0755
v  0.0184 0.0056 0.0149
v  0.0420 0.0250 0.0041
v  -0.0105 0.0402 0.0298
v  -0.0134 0.0349 0.0616
v  0.0459 0.0762 0.0675
v  0.0361 0.0785 0.0315
v  0.0459 0.0643 0.0835
v  0.0282 -0.0086 0.0669
v  0.0558 0.0050 0.0771
v  0.0361 0.0305 0.0960
v  0.0184 -0.0063 0.0309
v  0.0276 0.0686 0.0164
v  0.1244 -0.0078 0.0047
v  0.1133 0.0144 0.0255
v  0.0965 0.0306 0.0031
v  0.1674 0.0376 -0.0456
v  0.1574 0.0547 -0.0455
v  0.1813 0.0372 -0.0325
v  0.1842 0.0264 0.0156
v  0.1845 0.0564 -0.0066
v  0.1803 0.0420 0.0221
v  0.1180 0.0313 0.0346
v  0.1387 0.0625 0.0323
v  0.1109 0.0466 0.0272
v  0.1495 0.0375 -0.0521
v  0.1200 -0.0011 -0.0267
v  0.1296 0.0388 -0.0506
v  0.1611 0.0768 -0.0157
v  0.1440 0.0769 -0.0262
v  0.1288 0.0789 -0.0133
v  0.1468 0.0065 -0.0433
v  0.1566 -0.0100 0.0023
v  0.1603 0.0121 0.0322
v  0.1120 0.0586 -0.0320
v  0.1414 -0.0079 0.0152
v  0.1564 0.0787 0.0037
v  0.1741 0.0664 -0.0204
v  0.1651 0.0440 0.0350
v  0.1359 0.0315 0.0411
v  0.1490 -0.0111 -0.0162
v  0.1810 0.0072 -0.0103
v  0.1290 -0.0098 -0.0147
v  0.1045 0.0617 -0.0007
v  0.1013 0.0426 -0.0266
v  0.1009 0.0126 -0.0044
v  0.1365 0.0800 0.0052
v  0.1888 0.0244 -0.0038
v  -0.0334 0.0606 -0.0443
v  -0.0549 0.0365 -0.0448
v  -0.0326 0.0131 -0.0420
v  0.0095 0.0449 -0.1103
v  0.0089 0.0251 -0.1112
v  -0.0045 0.0531 -0.1203
v  -0.0517 0.0649 -0.1115
v  -0.0321 0.0394 -0.1304
v  -0.0591 0.0499 -0.1160
v  -0.0657 0.0251 -0.0569
v  -0.0676 0.0102 -0.0913
v  -0.0591 0.0082 -0.0601
v  0.0174 0.0350 -0.0961
v  -0.0024 0.0518 -0.0478
v  0.0174 0.0231 -0.0800
v  -0.0228 0.0093 -0.1229
v  -0.0111 -0.0004 -0.1099
v  -0.0228 -0.0100 -0.0969
v  0.0114 0.0597 -0.0760
v  -0.0334 0.0799 -0.0703
v  -0.0651 0.0642 -0.0820
v  -0.0013 -0.0027 -0.0740
v  -0.0451 0.0703 -0.0573
v  -0.0419 0.0056 -0.1179
v  -0.0183 0.0250 -0.1287
v  -0.0708 0.0402 -0.1030
v  -0.0736 0.0349 -0.0712
v  -0.0143 0.0762 -0.0654
v  -0.0241 0.0785 -0.1013
v  -0.0143 0.0643 -0.0493
v  -0.0321 -0.0086 -0.0659
v  -0.0045 0.0050 -0.0558
v  -0.0241 0.0305 -0.0368
v  -0.0419 -0.0063 -0.1019
v  -0.0326 0.0686 -0.1164
# 196 vertices

vn -0.0759 0.0477 0.9960
vn 0.5839 0.0165 -0.8117
vn -0.3035 0.4076 -0.8612
vn -0.8924 -0.3948 0.2184
vn 0.9053 0.3407 0.2537
vn 0.0000 -0.8020 -0.5974
vn 0.6405 0.6919 -0.3332
vn -0.3914 0.9067 -0.1572
vn -0.4794 -0.3615 0.7997
vn 0.4911 -0.8504 -0.1885
vn -0.4911 0.4241 0.7609
vn 0.9049 -0.1114 0.4108
vn -0.5141 -0.1622 -0.8422
vn 0.4911 -0.4241 -0.7609
vn -0.9822 -0.1504 -0.1121
vn -0.7560 0.4088 0.5113
vn 0.1876 0.9822 0.0117
vn 0.0000 0.8020 0.5974
vn 0.1161 -0.7332 0.6700
vn 0.5680 -0.1632 0.8067
vn 0.7846 -0.6190 -0.0340
vn 0.7994 -0.5449 -0.2531
vn -0.3035 -0.7085 0.6371
vn -0.5141 -0.8534 0.0857
vn 0.0220 0.2777 -0.9604
vn 0.6145 0.7176 -0.3277
vn -0.7187 -0.2503 -0.6487
vn 0.1876 0.2924 0.9377
vn 0.6071 0.6373 0.4747
vn -0.0833 -0.9234 0.3747
vn 0.7831 -0.1386 0.6062
vn -0.7947 0.4953 -0.3510
vn -0.9635 0.2647 -0.0410
vn -0.1876 -0.2924 -0.9377
vn 0.4994 0.3834 -0.7769
vn 0.5141 0.8534 -0.0857
vn 0.3035 0.7085 -0.6371
vn -0.5098 -0.3497 0.7860
vn -0.4911 0.8504 0.1885
vn 0.3035 -0.4076 0.8612
vn -0.5682 0.0319 0.8223
vn -0.1876 -0.9822 -0.0117
vn 0.3914 -0.9067 0.1572
vn -0.6071 -0.6373 -0.4747
vn 0.5415 -0.0132 -0.8406
vn 0.6734 -0.5929 -0.4416
vn 0.7947 -0.4953 0.3510
vn -0.2764 0.8668 -0.4151
vn -0.5448 -0.3565 -0.7590
vn 0.8910 0.3975 -0.2194
vn 0.8732 -0.0062 -0.4873
vn -0.8910 -0.3975 0.2194
vn -0.8089 0.1685 0.5633
vn 0.7090 -0.6905 -0.1428
vn -0.8972 -0.1740 -0.4060
vn 0.4817 0.6801 0.5526
vn 0.3290 -0.2567 -0.9088
vn 0.7599 0.2320 0.6072
vn -0.5813 -0.6657 0.4679
vn -0.3524 0.7376 -0.5759
vn 0.6421 0.5420 -0.5422
vn -0.2156 -0.2304 0.9489
vn -0.8530 0.2745 0.4439
vn 0.8144 -0.5803 -0.0000
vn -0.1906 -0.2392 0.9521
vn 0.0443 -0.9815 -0.1861
vn -0.1255 -0.2668 -0.9555
vn 0.9973 -0.0737 -0.0000
vn 0.6798 0.2729 -0.6808
vn -0.0529 0.9539 -0.2954
vn -0.4222 0.8528 0.3074
vn 0.2021 0.7214 0.6624
vn -0.3310 0.1411 0.9330
vn 0.3631 -0.7254 0.5848
vn -0.0192 -0.9753 0.2203
vn 0.6115 0.2150 -0.7615
vn -0.2737 0.5938 -0.7566
vn -0.9510 -0.0165 -0.3088
vn -0.4480 0.0004 -0.8940
vn -0.5861 -0.5859 0.5597
vn -0.8897 0.4176 0.1845
vn 0.3493 -0.3402 -0.8731
vn -0.0401 -0.9910 -0.1277
vn -0.4983 -0.7476 -0.4391
vn -0.8177 -0.5284 -0.2283
vn -0.6535 0.6364 -0.4098
vn -0.6880 0.6700 0.2789
vn 0.7124 0.1108 0.6929
vn 0.4549 -0.6850 0.5691
vn -0.2310 0.9225 -0.3092
vn 0.5066 0.8314 0.2283
vn -0.1591 0.5471 -0.8218
vn 0.5904 -0.2182 0.7771
vn 0.0819 -0.9306 0.3567
vn -0.9806 -0.0722 -0.1823
vn 0.9029 0.4027 -0.1505
vn -0.3700 0.1190 0.9214
vn 0.9516 -0.3052 0.0354
vn 0.1988 -0.8438 -0.4985
vn -0.6937 0.4727 -0.5434
vn -0.0428 0.6464 0.7618
vn -0.2638 -0.0345 -0.9640
vn 0.6330 0.7740 -0.0151
vn -0.4092 -0.6781 0.6105
vn 0.2638 0.0345 0.9640
vn -0.8785 -0.4694 -0.0886
vn -0.4597 -0.3116 -0.8316
vn 0.6966 -0.4957 -0.5187
vn 0.3700 -0.1190 -0.9214
vn -0.3929 0.9167 -0.0724
vn 0.2780 0.8809 -0.3831
vn 0.3080 0.7480 0.5879
vn 0.3882 0.5753 0.7200
vn -0.7208 0.6714 -0.1725
vn -0.9063 0.3140 0.2828
vn 0.2904 -0.7499 0.5944
vn 0.9438 -0.3305 0.0095
vn -0.6504 -0.6077 0.4557
vn 0.2005 0.4944 -0.8458
vn 0.7941 0.2094 -0.5706
vn -0.6258 0.7504 0.2126
vn 0.4935 0.8501 -0.1840
vn -0.3371 -0.9152 -0.2208
vn -0.6421 -0.6685 -0.3753
vn -0.2005 -0.4944 0.8458
vn 0.7195 -0.4619 0.5186
vn 0.9063 -0.3140 -0.2828
vn 0.7208 -0.6714 0.1725
vn -0.7105 0.4419 -0.5476
vn 0.0428 -0.6464 -0.7618
vn -0.0819 0.9306 -0.3567
vn -0.5520 0.2032 -0.8087
vn -0.6966 0.4957 0.5187
vn -0.1988 0.8438 0.4985
vn -0.7941 -0.2094 0.5706
vn 0.5425 -0.2392 0.8053
vn 0.2811 0.4251 0.8604
vn 0.3371 0.9152 0.2208
vn 0.3032 -0.9210 -0.2447
vn -0.5522 -0.5241 0.6483
vn 0.9810 0.0692 0.1813
vn 0.7761 0.1405 0.6148
vn -0.9810 -0.0692 -0.1813
vn -0.6427 -0.1600 -0.7492
vn -0.0000 -0.8020 -0.5974
vn -0.0000 0.8020 0.5974
vn -0.7983 -0.5727 0.1862
vn 0.6397 0.3783 -0.6691
vn 0.9648 0.1492 0.2167
vn -0.3273 0.2842 0.9012
vn -0.0969 -0.4953 -0.8633
vn 0.0598 0.9946 -0.0853
vn 0.6053 -0.4505 -0.6563
vn 0.6575 -0.6425 0.3936
vn -0.8264 -0.0915 0.5556
vn -0.3463 0.7744 -0.5295
vn -0.3638 -0.7272 0.5821
vn -0.4749 -0.2018 -0.8566
vn 0.6542 0.6329 0.4142
vn 0.3638 0.7272 -0.5821
vn 0.0888 0.2656 0.9600
vn -0.1432 -0.5580 0.8174
vn 0.5122 -0.8436 -0.1612
vn -0.0598 -0.9946 0.0853
vn -0.9685 0.2420 -0.0594
vn -0.8066 -0.3456 -0.4795
vn -0.3719 0.4735 -0.7985
vn -0.1499 0.5288 -0.8354
vn -0.8944 0.2728 0.3545
vn -0.4972 0.7094 0.4995
vn 0.9508 0.2854 -0.1208
vn 0.6169 -0.4729 -0.6292
vn 0.4608 0.6183 0.6366
vn -0.6369 -0.7672 -0.0761
vn -0.0955 -0.8392 -0.5354
vn -0.8104 0.5770 0.1015
vn -0.6430 -0.2749 -0.7148
vn 0.6260 -0.1608 0.7630
vn 0.2549 -0.1219 0.9592
vn 0.6369 0.7672 0.0761
vn 0.8178 0.0592 -0.5724
vn 0.4972 -0.7094 -0.4995
vn 0.8944 -0.2728 -0.3545
vn -0.8062 -0.0915 0.5846
vn 0.3463 -0.7744 0.5295
vn -0.9648 -0.1492 -0.2167
vn -0.6233 -0.4258 0.6559
vn -0.5122 0.8436 0.1612
vn -0.6575 0.6425 -0.3936
vn 0.0955 0.8392 0.5354
vn 0.6509 0.4223 -0.6309
vn -0.0089 0.6811 -0.7321
vn -0.6260 0.1608 -0.7630
vn 0.8415 -0.4788 0.2501
vn 0.4811 0.7529 0.4491
vn 0.3298 -0.2857 -0.8998
vn 0.3339 0.1985 -0.9215
vn -0.3298 0.2857 0.8998
vn -0.3137 -0.3807 0.8698
# 199 vertex normals

o cloud_2
g cloud_2
s off
f 1//1 2//1 3//1 
f 4//2 5//2 6//2 
f 7//3 8//3 9//3 
f 10//4 11//4 12//4 
f 13//5 14//5 15//5 
f 16//6 17//6 18//6 
f 19//7 4//7 6//7 
f 20//8 7//8 21//8 
f 12//9 3//9 2//9 
f 17//10 22//10 18//10 
f 23//11 2//11 1//11 
f 13//12 19//12 14//12 
f 24//13 9//13 8//13 
f 16//14 25//14 17//14 
f 26//15 11//15 27//15 
f 23//16 21//16 27//16 
f 28//17 29//17 20//17 
f 30//18 28//18 20//18 
f 3//19 31//19 32//19 
f 32//20 14//20 33//20 
f 17//21 5//21 13//21 
f 17//22 13//22 22//22 
f 12//23 31//23 3//23 
f 34//24 31//24 12//24 
f 25//25 35//25 6//25 
f 6//26 29//26 19//26 
f 16//6 18//6 34//6 
f 24//27 11//27 9//27 
f 30//28 33//28 14//28 
f 30//29 14//29 28//29 
f 18//30 22//30 32//30 
f 14//31 32//31 15//31 
f 9//32 21//32 7//32 
f 26//33 27//33 21//33 
f 16//34 8//34 25//34 
f 35//35 25//35 8//35 
f 28//36 19//36 29//36 
f 14//29 19//29 28//29 
f 20//8 29//8 7//8 
f 35//37 29//37 6//37 
f 12//38 2//38 10//38 
f 23//16 27//16 2//16 
f 20//39 21//39 23//39 
f 30//18 20//18 23//18 
f 32//40 33//40 3//40 
f 1//41 3//41 33//41 
f 18//42 31//42 34//42 
f 18//43 32//43 31//43 
f 34//44 11//44 24//44 
f 34//24 12//24 11//24 
f 25//14 5//14 17//14 
f 6//45 5//45 25//45 
f 15//46 22//46 13//46 
f 32//47 22//47 15//47 
f 35//48 7//48 29//48 
f 35//3 8//3 7//3 
f 26//49 9//49 11//49 
f 26//32 21//32 9//32 
f 30//18 23//18 1//18 
f 1//28 33//28 30//28 
f 16//6 34//6 24//6 
f 24//34 8//34 16//34 
f 4//50 19//50 13//50 
f 13//51 5//51 4//51 
f 27//52 11//52 10//52 
f 10//53 2//53 27//53 
f 36//54 37//54 38//54 
f 39//55 40//55 41//55 
f 42//56 43//56 44//56 
f 37//57 45//57 46//57 
f 47//58 44//58 43//58 
f 48//59 39//59 49//59 
f 50//60 51//60 41//60 
f 52//61 44//61 51//61 
f 43//62 53//62 48//62 
f 39//63 54//63 40//63 
f 47//64 38//64 37//64 
f 43//65 48//65 55//65 
f 38//66 49//66 45//66 
f 46//67 45//67 56//67 
f 44//68 47//68 37//68 
f 37//69 51//69 44//69 
f 51//70 50//70 42//70 
f 42//71 50//71 54//71 
f 42//72 54//72 43//72 
f 43//73 54//73 53//73 
f 38//74 55//74 48//74 
f 38//75 48//75 49//75 
f 46//76 51//76 37//76 
f 46//77 41//77 51//77 
f 41//78 56//78 39//78 
f 46//79 56//79 41//79 
f 53//80 39//80 48//80 
f 39//81 53//81 54//81 
f 37//82 36//82 45//82 
f 38//83 45//83 36//83 
f 49//84 56//84 45//84 
f 49//85 39//85 56//85 
f 50//86 41//86 40//86 
f 50//87 40//87 54//87 
f 55//88 47//88 43//88 
f 38//89 47//89 55//89 
f 52//90 51//90 42//90 
f 42//91 44//91 52//91 
f 57//92 58//92 59//92 
f 60//93 61//93 62//93 
f 63//94 64//94 65//94 
f 66//95 67//95 68//95 
f 69//96 70//96 71//96 
f 72//97 73//97 74//97 
f 75//98 60//98 62//98 
f 76//99 63//99 77//99 
f 68//100 59//100 58//100 
f 73//101 78//101 74//101 
f 79//102 58//102 57//102 
f 69//103 75//103 70//103 
f 80//104 65//104 64//104 
f 72//105 81//105 73//105 
f 82//106 67//106 83//106 
f 79//107 77//107 83//107 
f 84//108 85//108 76//108 
f 86//109 84//109 76//109 
f 59//110 87//110 88//110 
f 88//111 70//111 89//111 
f 73//112 61//112 69//112 
f 73//113 69//113 78//113 
f 68//114 87//114 59//114 
f 90//115 87//115 68//115 
f 81//116 91//116 62//116 
f 62//117 85//117 75//117 
f 72//97 74//97 90//97 
f 80//118 67//118 65//118 
f 86//119 89//119 70//119 
f 86//120 70//120 84//120 
f 74//121 78//121 88//121 
f 70//122 88//122 71//122 
f 65//123 77//123 63//123 
f 82//124 83//124 77//124 
f 72//125 64//125 81//125 
f 91//126 81//126 64//126 
f 84//127 75//127 85//127 
f 70//120 75//120 84//120 
f 76//99 85//99 63//99 
f 91//128 85//128 62//128 
f 68//129 58//129 66//129 
f 79//107 83//107 58//107 
f 76//130 77//130 79//130 
f 86//109 76//109 79//109 
f 88//131 89//131 59//131 
f 57//132 59//132 89//132 
f 74//133 87//133 90//133 
f 74//134 88//134 87//134 
f 90//135 67//135 80//135 
f 90//115 68//115 67//115 
f 81//105 61//105 73//105 
f 62//136 61//136 81//136 
f 71//137 78//137 69//137 
f 88//138 78//138 71//138 
f 91//139 63//139 85//139 
f 91//94 64//94 63//94 
f 82//140 65//140 67//140 
f 82//123 77//123 65//123 
f 86//109 79//109 57//109 
f 57//119 89//119 86//119 
f 72//97 90//97 80//97 
f 80//125 64//125 72//125 
f 60//141 75//141 69//141 
f 69//142 61//142 60//142 
f 83//143 67//143 66//143 
f 66//144 58//144 83//144 
f 92//1 93//1 94//1 
f 95//2 96//2 97//2 
f 98//3 99//3 100//3 
f 101//4 102//4 103//4 
f 104//5 105//5 106//5 
f 107//145 108//145 109//145 
f 110//7 95//7 97//7 
f 111//8 98//8 112//8 
f 103//9 94//9 93//9 
f 108//10 113//10 109//10 
f 114//11 93//11 92//11 
f 104//12 110//12 105//12 
f 115//13 100//13 99//13 
f 107//14 116//14 108//14 
f 117//15 102//15 118//15 
f 114//16 112//16 118//16 
f 119//17 120//17 111//17 
f 121//18 119//18 111//18 
f 94//19 122//19 123//19 
f 123//20 105//20 124//20 
f 108//21 96//21 104//21 
f 108//22 104//22 113//22 
f 103//23 122//23 94//23 
f 125//24 122//24 103//24 
f 116//25 126//25 97//25 
f 97//26 120//26 110//26 
f 107//145 109//145 125//145 
f 115//27 102//27 100//27 
f 121//28 124//28 105//28 
f 121//29 105//29 119//29 
f 109//30 113//30 123//30 
f 105//31 123//31 106//31 
f 100//32 112//32 98//32 
f 117//33 118//33 112//33 
f 107//34 99//34 116//34 
f 126//35 116//35 99//35 
f 119//36 110//36 120//36 
f 105//29 110//29 119//29 
f 111//8 120//8 98//8 
f 126//37 120//37 97//37 
f 103//38 93//38 101//38 
f 114//16 118//16 93//16 
f 111//39 112//39 114//39 
f 121//146 111//146 114//146 
f 123//40 124//40 94//40 
f 92//41 94//41 124//41 
f 109//42 122//42 125//42 
f 109//43 123//43 122//43 
f 125//44 102//44 115//44 
f 125//24 103//24 102//24 
f 116//14 96//14 108//14 
f 97//45 96//45 116//45 
f 106//46 113//46 104//46 
f 123//47 113//47 106//47 
f 126//48 98//48 120//48 
f 126//3 99//3 98//3 
f 117//49 100//49 102//49 
f 117//32 112//32 100//32 
f 121//18 114//18 92//18 
f 92//28 124//28 121//28 
f 107//145 125//145 115//145 
f 115//34 99//34 107//34 
f 95//50 110//50 104//50 
f 104//51 96//51 95//51 
f 118//52 102//52 101//52 
f 101//53 93//53 118//53 
f 127//147 128//147 129//147 
f 130//148 131//148 132//148 
f 133//149 134//149 135//149 
f 136//150 137//150 138//150 
f 139//151 140//151 141//151 
f 142//152 143//152 144//152 
f 145//153 130//153 132//153 
f 146//154 133//154 147//154 
f 138//155 129//155 128//155 
f 143//156 148//156 144//156 
f 149//157 128//157 127//157 
f 139//158 145//158 140//158 
f 150//159 135//159 134//159 
f 142//160 151//160 143//160 
f 152//161 137//161 153//161 
f 149//162 147//162 153//162 
f 154//163 155//163 146//163 
f 156//164 154//164 146//164 
f 129//165 157//165 158//165 
f 158//166 140//166 159//166 
f 143//167 131//167 139//167 
f 143//168 139//168 148//168 
f 138//169 157//169 129//169 
f 160//170 157//170 138//170 
f 151//171 161//171 132//171 
f 132//172 155//172 145//172 
f 142//152 144//152 160//152 
f 150//173 137//173 135//173 
f 156//174 159//174 140//174 
f 156//175 140//175 154//175 
f 144//176 148//176 158//176 
f 140//177 158//177 141//177 
f 135//178 147//178 133//178 
f 152//179 153//179 147//179 
f 142//180 134//180 151//180 
f 161//181 151//181 134//181 
f 154//182 145//182 155//182 
f 140//175 145//175 154//175 
f 146//154 155//154 133//154 
f 161//183 155//183 132//183 
f 138//184 128//184 136//184 
f 149//162 153//162 128//162 
f 146//185 147//185 149//185 
f 156//164 146//164 149//164 
f 158//186 159//186 129//186 
f 127//187 129//187 159//187 
f 144//188 157//188 160//188 
f 144//189 158//189 157//189 
f 160//190 137//190 150//190 
f 160//170 138//170 137//170 
f 151//160 131//160 143//160 
f 132//191 131//191 151//191 
f 141//192 148//192 139//192 
f 158//193 148//193 141//193 
f 161//194 133//194 155//194 
f 161//149 134//149 133//149 
f 152//195 135//195 137//195 
f 152//178 147//178 135//178 
f 156//164 149//164 127//164 
f 127//174 159//174 156//174 
f 142//152 160//152 150//152 
f 150//180 134//180 142//180 
f 130//196 145//196 139//196 
f 139//197 131//197 130//197 
f 153//198 137//198 136//198 
f 136//199 128//199 153//199 
f 162//1 163//1 164//1 
f 165//2 166//2 167//2 
f 168//3 169//3 170//3 
f 171//4 172//4 173//4 
f 174//5 175//5 176//5 
f 177//6 178//6 179//6 
f 180//7 165//7 167//7 
f 181//8 168//8 182//8 
f 173//9 164//9 163//9 
f 178//10 183//10 179//10 
f 184//11 163//11 162//11 
f 174//12 180//12 175//12 
f 185//13 170//13 169//13 
f 177//14 186//14 178//14 
f 187//15 172//15 188//15 
f 184//16 182//16 188//16 
f 189//17 190//17 181//17 
f 191//146 189//146 181//146 
f 164//19 192//19 193//19 
f 193//20 175//20 194//20 
f 178//21 166//21 174//21 
f 178//22 174//22 183//22 
f 173//23 192//23 164//23 
f 195//24 192//24 173//24 
f 186//25 196//25 167//25 
f 167//26 190//26 180//26 
f 177//6 179//6 195//6 
f 185//27 172//27 170//27 
f 191//28 194//28 175//28 
f 191//29 175//29 189//29 
f 179//30 183//30 193//30 
f 175//31 193//31 176//31 
f 170//32 182//32 168//32 
f 187//33 188//33 182//33 
f 177//34 169//34 186//34 
f 196//35 186//35 169//35 
f 189//36 180//36 190//36 
f 175//29 180//29 189//29 
f 181//8 190//8 168//8 
f 196//37 190//37 167//37 
f 173//38 163//38 171//38 
f 184//16 188//16 163//16 
f 181//39 182//39 184//39 
f 191//146 181//146 184//146 
f 193//40 194//40 164//40 
f 162//41 164//41 194//41 
f 179//42 192//42 195//42 
f 179//43 193//43 192//43 
f 195//44 172//44 185//44 
f 195//24 173//24 172//24 
f 186//14 166//14 178//14 
f 167//45 166//45 186//45 
f 176//46 183//46 174//46 
f 193//47 183//47 176//47 
f 196//48 168//48 190//48 
f 196//3 169//3 168//3 
f 187//49 170//49 172//49 
f 187//32 182//32 170//32 
f 191//18 184//18 162//18 
f 162//28 194//28 191//28 
f 177//6 195//6 185//6 
f 185//34 169//34 177//34 
f 165//50 180//50 174//50 
f 174//51 166//51 165//51 
f 188//52 172//52 171//52 
f 171//53 163//53 188//53 
# 368 faces

